<svg width="18" height="14" viewBox="0 0 18 14" fill="none" xmlns="http://www.w3.org/2000/svg">
<path d="M7.33341 0.333374H2.33341C1.41675 0.333374 0.675081 1.08337 0.675081 2.00004L0.666748 12C0.666748 12.9167 1.41675 13.6667 2.33341 13.6667H15.6667C16.5834 13.6667 17.3334 12.9167 17.3334 12V3.66671C17.3334 2.75004 16.5834 2.00004 15.6667 2.00004H9.00008L7.33341 0.333374Z" fill="#BBBBBB"/>
</svg>
